…
``` r
#lower is better
```

## can we iterate…?

``` r
cv_df = 
  crossv_mc(nonlin_df, 100) 

cv_df %>% pull(train) %>% .[[1]] %>% as_tibble
```

    ## # A tibble: 79 × 3
    ##       id       x       y
    ##    <int>   <dbl>   <dbl>
    ##  1     1 0.369    0.832 
    ##  2     2 0.891   -2.33  
    ##  3     3 0.217    0.693 
    ##  4     4 0.00610  0.277 
    ##  5     5 0.127    0.844 
    ##  6     6 0.0227  -0.244 
    ##  7     7 0.775   -1.42  
    ##  8     8 0.696   -1.08  
    ##  9     9 0.778   -1.26  
    ## 10    11 0.596    0.0641
    ## # … with 69 more rows
…
